module cyber-sec/core

go 1.17

require (
	github.com/99designs/keyring v1.1.5 // indirect
	github.com/AthenZ/athenz v1.10.15 // indirect
	github.com/DataDog/zstd v1.4.6-0.20210211175136-c6db21d202f4 // indirect
	github.com/apache/pulsar-client-go v0.7.0 // indirect
	github.com/apache/pulsar-client-go/oauth2 v0.0.0-20201120111947-b8bd55bc02bd // indirect
	github.com/ardielle/ardielle-go v1.5.2 // indirect
	github.com/beorn7/perks v1.0.1 // indirect
	github.com/cespare/xxhash/v2 v2.1.1 // indirect
	github.com/danieljoos/wincred v1.0.2 // indirect
	github.com/davecgh/go-spew v1.1.1 // indirect
	github.com/dgrijalva/jwt-go v3.2.0+incompatible // indirect
	github.com/dvsekhvalnov/jose2go v0.0.0-20180829124132-7f401d37b68a // indirect
	github.com/godbus/dbus v0.0.0-20190726142602-4481cbc300e2 // indirect
	github.com/gogo/protobuf v1.3.2 // indirect
	github.com/golang/protobuf v1.4.2 // indirect
	github.com/golang/snappy v0.0.1 // indirect
	github.com/gsterjov/go-libsecret v0.0.0-20161001094733-a6f4afe4910c // indirect
	github.com/keybase/go-keychain v0.0.0-20190712205309-48d3d31d256d // indirect
	github.com/klauspost/compress v1.10.8 // indirect
	github.com/konsorten/go-windows-terminal-sequences v1.0.1 // indirect
	github.com/linkedin/goavro/v2 v2.9.8 // indirect
	github.com/matttproud/golang_protobuf_extensions v1.0.1 // indirect
	github.com/mitchellh/go-homedir v1.1.0 // indirect
	github.com/mtibben/percent v0.2.1 // indirect
	github.com/pierrec/lz4 v2.0.5+incompatible // indirect
	github.com/pkg/errors v0.9.1 // indirect
	github.com/pmezard/go-difflib v1.0.0 // indirect
	github.com/prometheus/client_golang v1.7.1 // indirect
	github.com/prometheus/client_model v0.2.0 // indirect
	github.com/prometheus/common v0.10.0 // indirect
	github.com/prometheus/procfs v0.1.3 // indirect
	github.com/sirupsen/logrus v1.4.2 // indirect
	github.com/spaolacci/murmur3 v1.1.0 // indirect
	github.com/stretchr/testify v1.5.1 // indirect
	go.uber.org/atomic v1.7.0 // indirect
	golang.org/x/crypto v0.0.0-20200622213623-75b288015ac9 // indirect
	golang.org/x/net v0.0.0-20201021035429-f5854403a974 // indirect
	golang.org/x/oauth2 v0.0.0-20200107190931-bf48bf16ab8d // indirect
	golang.org/x/sys v0.0.0-20200930185726-fdedc70b468f // indirect
	google.golang.org/appengine v1.4.0 // indirect
	google.golang.org/protobuf v1.23.0 // indirect
	gopkg.in/yaml.v2 v2.3.0 // indirect
)
